<svg xmlns="http://www.w3.org/2000/svg" width="23" height="24" viewBox="0 0 23 24">
  <g id="support_1_" data-name="support (1)" transform="translate(-26)">
    <path id="Path_802" data-name="Path 802" d="M53.563,356.868,50.992,356H43l-2.572.868A6.944,6.944,0,0,0,36,363.389H57.988A6.944,6.944,0,0,0,53.563,356.868Z" transform="translate(-9.494 -339.895)"/>
    <path id="Path_803" data-name="Path 803" d="M166.483,112.6l-1.2-.171A8.588,8.588,0,0,1,160.428,110a4.049,4.049,0,0,0-3.239,1.619l-.789,1.053a31.711,31.711,0,0,0,.321,3.553,5.646,5.646,0,0,0,1.8,3.982l-.025.028-1.107,2.215a19.739,19.739,0,0,0,2.933,5.6l1.116,1.791,1.116-1.791a19.737,19.737,0,0,0,2.933-5.6l-1.107-2.215-.025-.028a4.989,4.989,0,0,0,1.629-2.913c.1-.6.133-.786.178-1.089a31.829,31.829,0,0,0,.321-3.6Z" transform="translate(-123.94 -106.344)" fill="#fff"/>
    <path id="Path_804" data-name="Path 804" d="M166.483,112.6l-1.2-.171A8.588,8.588,0,0,1,160.428,110a4.049,4.049,0,0,0-3.239,1.619l-.789,1.053a31.711,31.711,0,0,0,.321,3.553,5.646,5.646,0,0,0,1.8,3.982l-.025.028c-.371.742,2.992,2.974,2.992,2.974l2.891-2.974-.025-.028a4.989,4.989,0,0,0,1.629-2.913c.1-.6.133-.786.178-1.089a31.829,31.829,0,0,0,.321-3.6Z" transform="translate(-123.94 -105.271)" fill="#fff"/>
    <path id="Path_805" data-name="Path 805" d="M351.682,150v3.188a1.012,1.012,0,0,1-1.012,1.012h-1.215l-.136-.02a31.825,31.825,0,0,0,.321-3.6q.01-.29.013-.576h2.028Z" transform="translate(-307.176 -143.077)"/>
    <path id="Path_806" data-name="Path 806" d="M161.514,50a4.623,4.623,0,0,1,4.608,4.626c0,.256-.005.663-.017,1.011l-1.2-.171a8.588,8.588,0,0,1-4.858-2.429,4.049,4.049,0,0,0-3.239,1.619l-.789,1.053c-.013-.353-.02-.766-.02-1.082A4.623,4.623,0,0,1,160.608,50h.906Z" transform="translate(-123.561 -47.47)"/>
    <g id="Group_163" data-name="Group 163" transform="translate(30.471 6.814)">
      <path id="Path_807" data-name="Path 807" d="M218.024,253a1.012,1.012,0,0,1,0,2.024h-1.012a1.012,1.012,0,0,1,0-2.024Z" transform="translate(-210.939 -247.788)"/>
      <path id="Path_808" data-name="Path 808" d="M118.365,154.2h-1.353A1.012,1.012,0,0,1,116,153.188V150h2.028q0,.321.016.648A31.708,31.708,0,0,0,118.365,154.2Z" transform="translate(-116 -150)"/>
    </g>
    <path id="Path_809" data-name="Path 809" d="M356.506,397.012a.506.506,0,1,0-.506-.506A.506.506,0,0,0,356.506,397.012Z" transform="translate(-313.509 -377.498)"/>
    <path id="Path_810" data-name="Path 810" d="M26.5,24h22a.485.485,0,0,0,.5-.469,6.942,6.942,0,0,0-4.769-6.485L41.855,16.3,41,14.7a5.029,5.029,0,0,0,1.482-2.716l.106-.6h.91A1.457,1.457,0,0,0,45,9.984V7.031A7.285,7.285,0,0,0,37.5,0,7.273,7.273,0,0,0,30,7.031V9.984a1.418,1.418,0,0,0,1,1.326v.549a1.457,1.457,0,0,0,1.5,1.406h.439a5.062,5.062,0,0,0,.839,1.218c.071.076.145.15.22.222l-.853,1.6-2.377.743A6.942,6.942,0,0,0,26,23.531.485.485,0,0,0,26.5,24Zm11-1.355-.678-1.021q-.011-.017-.024-.033a17.839,17.839,0,0,1-1.127-1.578l1.783-1.768,1.879,1.761A17.819,17.819,0,0,1,38.2,21.591C38.178,21.621,38.213,21.573,37.5,22.645Zm2.339-3.49-1.7-1.591,2.137-2.118.68,1.275A17.286,17.286,0,0,1,39.839,19.155Zm-2.4-2.254-.976-.915a5.344,5.344,0,0,0,1.86.039Zm-2.8-1.3,2.11,1.978-1.586,1.572a17.292,17.292,0,0,1-1.119-2.434ZM47.98,23.063H38.4l.615-.926a18.718,18.718,0,0,0,1.378-1.975l.007-.012h0a18.244,18.244,0,0,0,1.408-2.869l2.1.658A5.985,5.985,0,0,1,47.98,23.063ZM31.5,10.453a.486.486,0,0,1-.5-.469V7.5h1.015q0,.073.005.147v.005h0c.035.941.119,1.9.243,2.8H31.5ZM42,7.021s0,0,0,0l-.625-.084a8.244,8.244,0,0,1-4.517-2.117.518.518,0,0,0-.354-.137A4.647,4.647,0,0,0,33.022,6.23a3.975,3.975,0,0,1,4.03-3.418h.9A3.944,3.944,0,0,1,42,6.629C42,6.776,42,6.9,42,7.021Zm2,2.963a.486.486,0,0,1-.5.469h-.763a28.728,28.728,0,0,0,.246-2.872c0-.027,0-.054,0-.081H44ZM37.5.938a6.354,6.354,0,0,1,6.481,5.625H43a4.918,4.918,0,0,0-5.052-4.687h-.9A4.918,4.918,0,0,0,32,6.563h-.982A6.341,6.341,0,0,1,37.5.938ZM32,11.859v-.469h.41l.106.6c.02.114.045.227.074.339H32.5A.486.486,0,0,1,32,11.859Zm3.086,1.406A1.5,1.5,0,0,0,36.5,14.2h1a1.409,1.409,0,1,0,0-2.812h-1a1.5,1.5,0,0,0-1.415.938H33.627a25.207,25.207,0,0,1-.6-4.549l.673-.841A3.591,3.591,0,0,1,36.3,5.63a9.3,9.3,0,0,0,4.927,2.24l.736.1a27.1,27.1,0,0,1-.294,2.865h0c-.046.29-.082.477-.174,1a4.079,4.079,0,0,1-3.014,3.2,4.33,4.33,0,0,1-1.966,0,4.032,4.032,0,0,1-2.451-1.771ZM36,12.8a.485.485,0,0,1,.5-.469h1a.47.47,0,1,1,0,.938h-1A.486.486,0,0,1,36,12.8Zm-4.915,5.139,2.1-.658a18.261,18.261,0,0,0,1.423,2.894l0,0h0a18.726,18.726,0,0,0,1.369,1.959l.615.926H27.02A5.985,5.985,0,0,1,31.085,17.936Z"/>
    <path id="Path_811" data-name="Path 811" d="M391.337,416a4.042,4.042,0,0,1,1.144,1.389.506.506,0,0,0,.906-.452,5.06,5.06,0,0,0-1.433-1.739.506.506,0,0,0-.617.8Z" transform="translate(-346.94 -395.993)"/>
  </g>
</svg>
