<svg xmlns="http://www.w3.org/2000/svg" width="37.883" height="37.895"
     viewBox="0 0 37.883 37.895">
    <defs>
        <linearGradient id="linear-gradient" y1="3.995" x2="3.736" y2="1.578" gradientUnits="objectBoundingBox">
            <stop offset="0" stop-color="#003f8a"/>
            <stop offset="0.511" stop-color="#00d7df"/>
            <stop offset="1" stop-color="#006df0"/>
        </linearGradient>
    </defs>
    <g id="credit-card" transform="translate(-0.502 0)">
        <path id="Path_263" data-name="Path 263"
              d="M287.162,151.957a.74.74,0,1,0,.74.74A.74.74,0,0,0,287.162,151.957Zm0,0"
              transform="translate(-264.759 -140.71)" fill="url(#linear-gradient)"/>
        <path id="Path_265" data-name="Path 265"
              d="M9.024,234.281a.74.74,0,0,0,1.044.006l3.587-3.534a2.236,2.236,0,0,0,.527-2.3l.772-.744a2.207,2.207,0,0,1,1.541-.622h9.837a6.625,6.625,0,0,0,4.645-1.887c.051-.05-.391.471,6.711-8.017a2.96,2.96,0,0,0-4.5-3.842l-4.366,4.488a2.974,2.974,0,0,0-2.3-1.1H18.265a9.546,9.546,0,0,0-3.705-.74,9.154,9.154,0,0,0-8.344,4.731,2.21,2.21,0,0,0-1.979.613l-3.52,3.53a.74.74,0,0,0,0,1.043Zm5.536-16.81a8.077,8.077,0,0,1,3.257.678.739.739,0,0,0,.3.062h8.4a1.48,1.48,0,1,1,0,2.96H20.479a.74.74,0,1,0,0,1.48h6.037A2.955,2.955,0,0,0,29.45,219.3c4.224-4.342,4.819-4.952,4.845-4.982a1.48,1.48,0,1,1,2.26,1.912l-6.637,7.934a5.152,5.152,0,0,1-3.587,1.442H16.495a3.679,3.679,0,0,0-2.569,1.037l-.629.607-5.8-5.8a7.64,7.64,0,0,1,7.059-3.987Zm-9.275,4.91a.738.738,0,0,1,.916-.1c.113.069,6.442,6.413,6.481,6.466a.743.743,0,0,1-.068.96l-3.058,3.013-7.27-7.326Zm0,0"
              transform="translate(0 -196.605)" fill="url(#linear-gradient)"/>
        <path id="Path_266" data-name="Path 266"
              d="M128.685,15.686h17.758a2.222,2.222,0,0,0,2.22-2.22V2.219A2.222,2.222,0,0,0,146.443,0H128.685a2.222,2.222,0,0,0-2.22,2.22V13.466A2.222,2.222,0,0,0,128.685,15.686Zm18.5-9.767H127.945V4.439h19.238Zm-.74,8.288H128.685a.741.741,0,0,1-.74-.74V7.4h19.238v6.067a.741.741,0,0,1-.74.74ZM128.685,1.48h17.758a.741.741,0,0,1,.74.74v.74H127.945v-.74a.741.741,0,0,1,.74-.74Zm0,0"
              transform="translate(-116.641)" fill="url(#linear-gradient)"/>
        <path id="Path_267" data-name="Path 267"
              d="M330.11,151.957h-2.96a.74.74,0,0,0,0,1.48h2.96a.74.74,0,1,0,0-1.48Zm0,0"
              transform="translate(-301.788 -140.71)" fill="url(#linear-gradient)"/>
    </g>
</svg>
